{
    "servers": {
        "CbfMaster": {
            "master": {
                "CbfMaster": {
                    "mid_csp_cbf/sub_elt/master": {
                        "attribute_properties": {
                            "adminMode": {
                                "abs_change": [
                                    "-1",
                                    "1"
                                ]
                            },
                            "healthState": {
                                "abs_change": [
                                    "-1",
                                    "1"
                                ]
                            }
                        },
                        "properties": {
                            "CbfSubarrays": [
                                "mid_csp_cbf/sub_elt/subarray_01",
                                "mid_csp_cbf/sub_elt/subarray_02",
                                "mid_csp_cbf/sub_elt/subarray_03"
                            ],
                            "MaxCapabilities": [
                                "VCC:4",
                                "FSP:4",
                                "Subarray:3"
                            ],
                            "polled_attr": [
                                "reportfspstate",
                                "1000",
                                "reportvccadminmode",
                                "1000",
                                "reportvcchealthstate",
                                "1000",
                                "receptortovcc",
                                "1000",
                                "reportfspCorrSubarraymembership",
                                "1000",
                                "reportfsphealthstate",
                                "1000",
                                "healthstate",
                                "1000",
                                "adminmode",
                                "1000",
                                "subarrayconfigid",
                                "1000",
                                "reportfspadminmode",
                                "1000",
                                "commandprogress",
                                "2000",
                                "reportsubarrayhealthstate",
                                "1000",
                                "reportvccstate",
                                "1000",
                                "reportsubarrayadminmode",
                                "1000",
                                "vcctoreceptor",
                                "3000",
                                "reportsubarraystate",
                                "3000",
                                "state",
                                "1000"
                            ]
                        }
                    }
                }
            }
        },
        "CbfSubarray": {
            "cbfsubarray-01": {
                "CbfSubarray": {
                    "mid_csp_cbf/sub_elt/subarray_01": {
                        "attribute_properties": {
                            "healthState": {
                                "abs_change": [
                                    "-1",
                                    "1"
                                ]
                            }
                        },
                        "properties": {
                            "polled_attr": [
                            "healthState",
                            "1000"
                            ]
                        }
                    }
                }
            },
            "cbfsubarray-02": {
                "CbfSubarray": {
                    "mid_csp_cbf/sub_elt/subarray_02": {
                        "attribute_properties": {
                            "healthState": {
                                "abs_change": [
                                    "-1",
                                    "1"
                                ]
                            }
                        },
                        "properties": {
                            "polled_attr": [
                            "healthState",
                            "1000"
                            ]
                        }
                    }
                }
            },
            "cbfsubarray-03": {
                "CbfSubarray": {
                    "mid_csp_cbf/sub_elt/subarray_03": {
                        "attribute_properties": {
                            "healthState": {
                                "abs_change": [
                                    "-1",
                                    "1"
                                ]
                            }
                        },
                        "properties": {
                            "polled_attr": [
                            "healthState",
                            "1000"
                            ]
                        }
                    }
                }
            }
        }
    }
}
